[{"type": "mysql",
   "host": "localhost",
   "port": 3306,
   "username": "root",
   "password": "123456",
   "database": "cocacola",
   "synchronize": false,
   "logging": true,
   "entities": [
      "src/data/entities/*.ts"
   ],
   "migrations": [
      "src/data/migration/*.ts"
   ],
   "cli": {
      "entitiesDir": "src/data/entities",
      "migrationsDir": "src/data/migration"
   }
}]